Analysis
…
try interactive graph

library(networkD3)

networkD3::simpleNetwork(user_subs, zoom = TRUE)

# centrality measures

igraph::degree(sub_net) |>
  bind_rows() |>
  pivot_longer(cols = everything(), names_to = "account", values_to = "degree") |>
  arrange(desc(degree))
## # A tibble: 536 × 2
##    account              degree
##    <chr>                 <dbl>
##  1 UCKY0U                  178
##  2 xaniel_the_legend       129
##  3 TripTeamSix              91
##  4 skipper489               79
##  5 tasha2577                37
##  6 GreyPlague               35
##  7 stayingalivedaybyday     31
##  8 TotalBath                25
##  9 benztruck666             21
## 10 VisceralHeave            10
## # … with 526 more rows
